emissions_analysis_spain
…
Se agrupan los datos por industria y se calculan las emisiones
totales.

Se ordenan los resultados para determinar las industrias que más
contribuyen a la contaminación.

industria_spain <- spain_gas %>%
  filter(!is.na(Industry) & Industry != "") %>%
  group_by(Industry) %>%
  summarise(total_emissions = sum(Value, na.rm = TRUE)) %>%
  arrange(desc(total_emissions))

industria_spain

## # A tibble: 25 × 2
##    Industry                                  total_emissions
##    <chr>                                               <dbl>
##  1 Not Applicable                                    125389.
##  2 Energy                                             24027.
##  3 Energy Industries                                   8000.
##  4 Mineral Industry                                    7724.
##  5 Electronics Industry                                7218.
##  6 Other                                               7214.
##  7 Road Transportation                                 6202.
##  8 Manufacturing Industries and Construction           5263.
##  9 Land-use, land-use change and forestry              4551.
## 10 Product Uses as Substitutes for ODS                 3955.
## # ℹ 15 more rows

industria_spain <- spain_gas %>%
  filter(!is.na(Industry) & Industry != "" & Industry != "Not Applicable") %>%
  group_by(Industry) %>%
  summarise(total_emissions = sum(Value, na.rm = TRUE)) %>%
  arrange(desc(total_emissions))

industria_spain

## # A tibble: 24 × 2
##    Industry                                       total_emissions
##    <chr>                                                    <dbl>
##  1 Energy                                                  24027.
##  2 Energy Industries                                        8000.
##  3 Mineral Industry                                         7724.
##  4 Electronics Industry                                     7218.
##  5 Other                                                    7214.
##  6 Road Transportation                                      6202.
##  7 Manufacturing Industries and Construction                5263.
##  8 Land-use, land-use change and forestry                   4551.
##  9 Product Uses as Substitutes for ODS                      3955.
## 10 Non-energy Products from Fuels and Solvent Use           3791.
## # ℹ 14 more rows
…
spain_anual

## # A tibble: 52 × 3
##     Year media_emisiones LEVEL_EMISSIONS
##    <dbl>           <dbl> <fct>          
##  1  1970            16.6 LOW_EMISSIONS  
##  2  1971            16.5 LOW_EMISSIONS  
##  3  1972            17.4 MED_EMISSIONS  
##  4  1973            18.5 MED_EMISSIONS  
##  5  1974            19.1 MED_EMISSIONS  
##  6  1975            19.4 MED_EMISSIONS  
##  7  1976            20.7 HIGH_EMISSIONS 
##  8  1977            20.6 HIGH_EMISSIONS 
##  9  1978            20.7 HIGH_EMISSIONS 
## 10  1979            21.6 HIGH_EMISSIONS 
## # ℹ 42 more rows
